﻿at+cfgex 1010 "70B3D57ED0008F4F"
at+cfgex 1011 "0042995886FD1280"
at+cfgex 1012 "62A1B4B5D68DE7650E0E13F48451330C"
at+cfgex 1009 "0002000000000000ff00"
atz
at+cfgex 1010 "70B3D57ED0008F4F"
at+cfgex 1011 "70b3d57ed0008f52"
at+cfgex 1012 "62a1b4b5d68de7650e0e13f48451330c"
